…
    #Applying recepe to a test
    test_baked <- rec %>% bake(df_test)

    #Demonstration of different ways of doing the same process
    juice(rec) 

    ## # A tibble: 3,036 x 7
    ##    Gender Study PhonatationTime PitchVariability Speechrate PauseDuration
    ##    <fct>  <dbl>           <dbl>            <dbl>      <dbl>         <dbl>
    ##  1 M       1.06          -0.812           -0.211     -0.986        -0.969
    ##  2 M       1.06           3.19            -0.401      0.841        -0.500
    ##  3 M       1.06           1.89            -0.366      1.19         -0.268
    ##  4 M       1.06           3.68            -0.381      1.03         -0.454
    ##  5 M       1.06           2.01            -0.368      0.491        -0.128
    ##  6 M       1.06           1.54            -0.282      0.160        -0.166
    ##  7 M       1.06          -0.851           -0.562     -1.65         -0.969
    ##  8 M       1.06          -0.139           -0.366      0.500         0.655
    ##  9 M       1.06           4.88            -0.321      1.09         -0.503
    ## 10 M       1.06           3.19            -0.314      0.471        -0.233
    ## # … with 3,026 more rows, and 1 more variable: Diagnosis <fct>

    rec %>% bake(df_train)

    ## # A tibble: 3,036 x 7
    ##    Gender Diagnosis Study PhonatationTime PitchVariability Speechrate
    ##    <fct>  <fct>     <dbl>           <dbl>            <dbl>      <dbl>
    ##  1 M      0          1.06          -0.812           -0.211     -0.986
    ##  2 M      0          1.06           3.19            -0.401      0.841
    ##  3 M      0          1.06           1.89            -0.366      1.19 
    ##  4 M      0          1.06           3.68            -0.381      1.03 
    ##  5 M      0          1.06           2.01            -0.368      0.491
    ##  6 M      0          1.06           1.54            -0.282      0.160
    ##  7 M      0          1.06          -0.851           -0.562     -1.65 
    ##  8 M      0          1.06          -0.139           -0.366      0.500
    ##  9 M      0          1.06           4.88            -0.321      1.09 
    ## 10 M      0          1.06           3.19            -0.314      0.471
    ## # … with 3,026 more rows, and 1 more variable: PauseDuration <dbl>
…
